<?xml version="1.0" encoding="utf-8"?>
<!-- Generator: Adobe Illustrator 16.0.0, SVG Export Plug-In . SVG Version: 6.00 Build 0)  -->
<!DOCTYPE svg PUBLIC "-//W3C//DTD SVG 1.1//EN" "http://www.w3.org/Graphics/SVG/1.1/DTD/svg11.dtd">
<svg version="1.1" id="Layer_1" xmlns="http://www.w3.org/2000/svg" xmlns:xlink="http://www.w3.org/1999/xlink" x="0px" y="0px"
	 width="566.93px" height="425.2px" viewBox="0 0 566.93 425.2" enable-background="new 0 0 566.93 425.2" xml:space="preserve">
<g>
	<defs>
		<rect id="SVGID_1_" x="127" y="65.646" width="288.207" height="293.909"/>
	</defs>
	<clipPath id="SVGID_2_">
		<use xlink:href="#SVGID_1_"  overflow="visible"/>
	</clipPath>
	<path clip-path="url(#SVGID_2_)" fill="#00AEEF" d="M394.68,278.275c-6.424-5.289-14.689-11.19-24.909-16.885V108.804
		c7.876-4.409,16.159-9.376,24.909-15.011V278.275z M349.51,119.366v132.295c-22.629-9.255-51.879-16.265-88.588-16.265h-24.16
		v-93.603h24.16C281.828,141.794,309.519,138.576,349.51,119.366 M217.237,235.396H183c-20.078,0-36.397-16.322-36.397-36.403
		v-20.796c0-20.083,16.319-36.403,36.397-36.403h34.237V235.396z M414.281,210.673v-44.078c0.315,0.141,0.618,0.3,0.926,0.451
		v-20.758c-0.311-0.078-0.611-0.181-0.926-0.252v-70.64c0-3.68-2-6.961-5.281-8.641c-3.199-1.68-7.121-1.441-10.16,0.641
		c-70.238,48.558-110.56,54.801-137.84,54.801h-78c-30.879,0-56,25.117-56,56v20.796c0,30.882,25.121,55.999,56,55.999h37.441
		l40.637,98.481c1.524,3.763,5.203,6.081,9.043,6.081c1.277,0,2.481-0.24,3.758-0.723c5.043-2.078,7.358-7.758,5.358-12.797
		l-37.597-91.043h19.281c95.039,0,133.918,50.322,135.68,52.641c1.918,2.564,4.797,4,7.84,4c1.039,0,2.078-0.159,3.039-0.479
		c4-1.361,6.719-5.041,6.719-9.279v-70.561c0.341-0.079,0.669-0.191,1.008-0.278v-20.814
		C414.899,210.375,414.597,210.533,414.281,210.673"/>
</g>
</svg>
